R Interface to FishBase • rOpenSci: rfishbase
…
Another typical use case is in wanting to collect information about all species in a particular taxonomic group, such as a Genus, Family or Order. The function species_list recognizes six taxonomic levels, and can help you generate a list of names of all species in a given group:

fish <- species_list(Genus = "Labroides")
fish

[1] "Labroides bicolor"       "Labroides dimidiatus"   
[3] "Labroides pectoralis"    "Labroides phthirophagus"
[5] "Labroides rubrolabiatus"

rfishbase also recognizes common names. When a common name refers to multiple species, all matching species are returned:

trout <- common_to_sci("trout")
trout

# A tibble: 305 x 4
   Species                   ComName              Language SpecCode
   <chr>                     <chr>                <chr>    <chr>   
 1 Salmo obtusirostris       Adriatic trout       English  6210    
 2 Schizothorax richardsonii Alawan snowtrout     English  8705    
 3 Schizopyge niger          Alghad snowtrout     English  24454   
 4 Salvelinus fontinalis     American brook trout English  246     
 5 Salmo trutta              Amu-Darya trout      English  238     
 6 Salmo kottelati           Antalya trout        English  67602   
 7 Oncorhynchus apache       Apache Trout         English  2687    
 8 Oncorhynchus apache       Apache trout         English  2687    
 9 Plectropomus areolatus    Apricot trout        English  6082    
10 Salmo trutta              Aral Sea Trout       English  238     
# … with 295 more rows

Note that there is no need to validate names coming from common_to_sci or species_list, as these will always return valid names.

Getting data

With a species list in place, we are ready to query fishbase for data. Note that if you have a very long list of species, it is always a good idea to try out your intended functions with a subset of that list first to make sure everything is working.

The species() function returns a table containing much (but not all) of the information found on the summary or homepage for a species on FishBase. rfishbase functions always return tidy data tables: rows are observations (e.g. a species, individual samples from a species) and columns are variables (fields).

species(trout$Species)

# A tibble: 305 x 101
   SpecCode Species Genus SpeciesRefNo Author FBname PicPreferredName
   <chr>    <chr>   <chr> <chr>        <chr>  <chr>  <chr>           
 1 6210     Salmo … Salmo 59043        (Heck… Adria… Saobt_u0.jpg    
 2 8705     Schizo… Schi… 4832         (Gray… Snowt… Scric_u1.jpg    
 3 24454    Schizo… Schi… 4832         (Heck… Algha… <NA>            
 4 246      Salvel… Salv… 86798        (Mitc… Brook… Safon_u4.jpg    
 5 238      Salmo … Salmo 4779         Linna… Sea t… Satru_u2.jpg    
 6 67602    Salmo … Salmo 99540        Turan… Antal… Sakot_m0.jpg    
 7 2687     Oncorh… Onco… 5723         (Mill… Apach… Onapa_u0.jpg    
 8 2687     Oncorh… Onco… 5723         (Mill… Apach… Onapa_u0.jpg    
 9 6082     Plectr… Plec… 5222         (R<fc… Squar… Plare_u4.jpg    
10 238      Salmo … Salmo 4779         Linna… Sea t… Satru_u2.jpg    
# … with 295 more rows, and 94 more variables: PicPreferredNameM <chr>,
#   PicPreferredNameF <chr>, PicPreferredNameJ <chr>, FamCode <chr>,
#   Subfamily <chr>, GenCode <chr>, SubGenCode <chr>, BodyShapeI <chr>,
#   Source <chr>, AuthorRef <chr>, Remark <chr>, TaxIssue <chr>, Fresh <chr>,
#   Brack <chr>, Saltwater <chr>, DemersPelag <chr>, Amphibious <chr>,
#   AmphibiousRef <chr>, AnaCat <chr>, MigratRef <chr>,
#   DepthRangeShallow <chr>, DepthRangeDeep <chr>, DepthRangeRef <chr>,
#   DepthRangeComShallow <chr>, DepthRangeComDeep <chr>, DepthComRef <chr>,
#   LongevityWild <chr>, LongevityWildRef <chr>, LongevityCaptive <chr>,
…
Most tables contain many fields. To avoid overly cluttering the screen, rfishbase displays tables as “tibbles” from the dplyr package. These act just like the familiar data.frames of base R except that they print to the screen in a more tidy fashion. Note that columns that cannot fit easily in the display are summarized below the table. This gives us an easy way to see what fields are available in a given table.

Most rfishbase functions will let the user subset these fields by listing them in the fields argument, for instance:

dat <- species(trout$Species, fields=c("Species", "PriceCateg", "Vulnerability"))
dat

# A tibble: 305 x 3
   Species                   PriceCateg Vulnerability
   <chr>                     <chr>      <chr>        
 1 Salmo obtusirostris       very high  46.98        
 2 Schizothorax richardsonii unknown    34.78        
 3 Schizopyge niger          unknown    46.76        
 4 Salvelinus fontinalis     very high  43.37        
 5 Salmo trutta              very high  59.96        
 6 Salmo kottelati           <NA>       33.71        
 7 Oncorhynchus apache       very high  53.76        
 8 Oncorhynchus apache       very high  53.76        
 9 Plectropomus areolatus    very high  30.28        
10 Salmo trutta              very high  59.96        
# … with 295 more rows
…
Because rfishbase accesses the back end database, it does not always line up with the web display. Frequently rfishbase functions will return more information than is available on the web versions of the these tables. Some information found on the summary homepage for a species is not available from the species summary function, but must be extracted from a different table. For instance, the species Resilience information is not one of the fields in the species summary table, despite appearing on the species homepage of FishBase. To discover which table this information is in, we can use the special rfishbase function list_fields, which will list all tables with a field matching the query string:

list_fields("Resilience")

# A tibble: 1 x 1
  table 
  <chr> 
1 stocks

This shows us that this information appears on the stocks table. We can then request this data from the stocks table:

stocks(trout$Species, fields=c("Species", "Resilience", "StockDefs"))

# A tibble: 407 x 3
   Species            Resilience StockDefs                                      
   <chr>              <chr>      <chr>                                          
 1 Salmo obtusirostr… Medium     "Europe:  Adriatic basin in Krka, Jardo, Vrlji…
 2 Schizothorax rich… Medium     "Asia:  Himalayan region of India, Sikkim and …
 3 Schizopyge niger   Medium     "Asia:  Kashmir Valley in India and Azad Kashm…
 4 Salvelinus fontin… Medium     "North America:  native to most of eastern Can…
 5 Salmo trutta       <NA>       "<i>Salmo trutta aralensis</i>:  Asia:  Aral S…
 6 Salmo trutta       <NA>       "<i>Salmo trutta aralensis</i>:  Asia:  endemi…
 7 Salmo trutta       Medium     "<i>Salmo trutta fario</i>:  Northeast  Atlant…
 8 Salmo trutta       Low        "<i>Salmo trutta lacustris</i>\t:  Europe:  wi…
 9 Salmo trutta       <NA>       "<i>Salmo trutta oxianus</i>\t:  Asia:  Amu-Da…
10 Salmo trutta       <NA>       "Baltic Sea (ICES subdivisions 22-32)"         
# … with 397 more rows
…
All other tables can also take an argument to server:

species(server="sealifebase")

# A tibble: 121,348 x 109
   SpecCode Species Genus Author SpeciesRefNo FBname FamCode Subfamily GenCode
   <chr>    <chr>   <chr> <chr>  <chr>        <chr>  <chr>   <chr>     <chr>  
 1 32307    Aaptol… Aapt… (Pils… 19           <NA>   815     <NA>      27838  
 2 32306    Aaptol… Aapt… Newma… 81749        <NA>   815     <NA>      27838  
 3 32308    Aaptol… Aapt… (Pils… 19           <NA>   815     <NA>      27838  
 4 32304    Aaptol… Aapt… Newma… 19           <NA>   815     <NA>      27838  
 5 32305    Aaptol… Aapt… Newma… 19           <NA>   815     <NA>      27838  
 6 51720    Aaptos… Aapt… (Schm… 19           <NA>   2630    <NA>      9253   
 7 165941   Aaptos… Aapt… de La… 108813       <NA>   2630    <NA>      <NA>   
 8 105687   Aaptos… Aapt… (Wils… 3477         <NA>   2630    <NA>      9253   
 9 10215    Aatola… Aato… (Mier… 3113         <NA>   521     <NA>      9254   
10 90398    Aatola… Aato… Keabl… 3113         <NA>   521     <NA>      9254   
# … with 121,338 more rows, and 100 more variables: TaxIssue <chr>,
#   Remark <chr>, PicPreferredName <chr>, PicPreferredNameM <chr>,
#   PicPreferredNameF <chr>, PicPreferredNameJ <chr>, Source <chr>,
#   AuthorRef <chr>, SubGenCode <chr>, Fresh <chr>, Brack <chr>,
#   Saltwater <chr>, Land <chr>, BodyShapeI <chr>, DemersPelag <chr>,
#   AnaCat <chr>, MigratRef <chr>, DepthRangeShallow <chr>,
#   DepthRangeDeep <chr>, DepthRangeRef <chr>, DepthRangeComShallow <chr>,
#   DepthRangeComDeep <chr>, DepthComRef <chr>, LongevityWild <chr>,
#   LongevityWildRef <chr>, LongevityCaptive <chr>, LongevityCapRef <chr>,
…
