common_to_sci — common_to_sci • rOpenSci: rfishbase
…
#> Joining, by = c("Subfamily", "GenCode", "FamCode")
#> Joining, by = "FamCode"
#> Joining, by = c("Order", "Ordnum", "Class", "ClassNum")
#> Joining, by = c("Class", "ClassNum")
#> # A tibble: 5 x 4
#>   Species                ComName                     Language SpecCode
#>   <chr>                  <chr>                       <chr>       <dbl>
#> 1 Labroides bicolor      Bicolor cleaner wrasse      English      5650
#> 2 Chlorurus cyanescens   Blue humphead parrotfish    English      7909
#> 3 Bolbometopon muricatum Green humphead parrotfish   English      5537
#> 4 Bolbometopon muricatum Humphead parrotfish         English      5537
#> 5 Chlorurus oedema       Uniform humphead parrotfish English      8394
common_to_sci(c("Coho Salmon", "trout"))

#> # A tibble: 306 x 4
#>    Species                   ComName              Language SpecCode
#>    <chr>                     <chr>                <chr>       <dbl>
#>  1 Oncorhynchus kisutch      Coho salmon          English       245
#>  2 Salmo obtusirostris       Adriatic trout       English      6210
#>  3 Schizothorax richardsonii Alawan snowtrout     English      8705
#>  4 Schizopyge niger          Alghad snowtrout     English     24454
#>  5 Salvelinus fontinalis     American brook trout English       246
#>  6 Salmo trutta              Amu-Darya trout      English       238
#>  7 Salmo kottelati           Antalya trout        English     67602
#>  8 Oncorhynchus apache       Apache Trout         English      2687
#>  9 Oncorhynchus apache       Apache trout         English      2687
#> 10 Plectropomus areolatus    Apricot trout        English      6082
#> # … with 296 more rows
…
